{
    "councils": [{
            "council": "WHO",
            "long": "World Health Organisation",
            "directors": [{
                    "name": "Anica Lo",
                    "email": "lo_pui_yee@rvhs.edu.sg",
                    "bio": "Anica is a JC1 student who takes the fairly odd combination of MEHT (or as her co-chair would often tease: ‘METH’ when re-arranged). Contrastingly, math is not her forte as she often gives her math workbook the cold shoulder, only to regret her actions the day before her math exam. ‘What was she doing during the lead-up to the exam?’ is a common question she asks herself too when she receives her math results as flashbacks of her spending most of her time laying in bed watching anime/dramas, fangirling over kpop idols and annoying her neighbours with the violin floods her mind. As Anica recalls her MUN experiences in 2021, she remembers aspiring to become like her chairs one day and is grateful to have this opportunity in RVMUN 2022 where she hopes to be a friendly and approachable chair to all delegates.  She also wishes for a fruitful time with the council members and is extremely excited about getting to know them better."
                },
                {
                    "name": "Chua Ee Teng",
                    "email": "chua_ee_teng@rvhs.edu.sg",
                    "bio": "Ee Teng is a sleep deprived, over-achieving JC2 student, which is evident from the fact that she is involved in three events that happen back-to-back of one another. She has been told that she can look and sound quite fierce sometimes, but please don’t let that stop you from approaching her to talk about your go-to bubble tea order! Ee Teng is clearly addicted to bubble tea despite telling everyone around her repeatedly that she will \"quit bubble tea to get healthy and save money\" (as her co-chair clearly knows while she watches in agony every time Ee Teng drinks bubble tea without her). Officially, RVMUN 2022 would be Ee Teng’s first MUN as a delegate-slash-chair, so she hopes that delegates will be nice and not flame her too hard for any mistakes she might make. She also sincerely welcomes every delegate, and wishes that everyone will be willing to participate actively to make the most of their time at RVMUN 2022!"
                }
            ],
            "topics": [{
                    "name": "Preventing Prescription Drug Abuse in Rural Areas",
                    "intro": "Prescription drug abuse refers to the use of prescribed medication in an unintended manner. As access to prescription drugs becomes easier, it leads to an increase in misusage of the prescribed drugs. Although prescription drug abuse has been monitored and controlled in some cities it remains lacking in rural communities. Such drug abuse can have significant social implications and affect the social functioning of individuals while burdening society. Hence, how should we work on preventing prescription drug abuse in rural areas before it is too late?"
                },
                {
                    "name": "Strengthening the Fight Against Infectious Diseases",
                    "intro": "The outbreak of an infectious disease can spread rapidly, resulting in the loss of countless lives as demonstrated by past outbreaks of Measles and Polio, as well as the ongoing Covid-19 pandemic. Furthermore, different countries have different regulations, due to disparities in funding, resources and the political state of the country. This difference in regulations between countries is often the main hindrance in controlling a disease and eradicating it for good. Therefore, it is of utmost importance that every country's response systems are reviewed and kept up-to-date to ensure that countries are able to better deal with the outbreak of infectious diseases, whether past, present or future."
                }
            ],
            "intro": "The World Health Organisation strives to promote health matters and the well-being of populations,, and serves the vulnerable such that it is an inclusive approach towards quality healthcare. In RVMUN 2022, Delegates will address and debate on 2 topics: (1) Preventing Prescription Drug Abuse in Rural Areas, and (2) Strengthening the Fight Against Infectious Diseases."
        },
        {
            "council": "ECOSOC",
            "long": "Economic and Social Council",
            "directors": [{
                    "name": "Xu Xinyue",
                    "email": "xu_xinyue@rvhs.edu.sg",
                    "bio": "Xinyue is your average student with an unholy sleep schedule and a questionable mix of interests, spanning from mad late night gaming sessions to drawing and reading alone. On top of that, she motivates herself to work just to spend it on Kpop merches that will sit on her display shelf and collect dust. \"A pleasing collection to look at\", she says. Though her MUN experience is not as extensive as her Kpop collection, she is dedicated, along with her awesome fellow directors, to make MUN a fun and inclusive place for delegates to flow freely with their imaginations."
                },
                {
                    "name": "Trisha Teo",
                    "email": "Trisha_teo@rvhs.edu.sg",
                    "bio": "Trisha is a JC2 student studying the standard BCME combination. She is addicted to eating hotpot, spicy soup, sweet desserts and mostly bubble tea. During her free time, she can spend the whole day or week binging on dramas and variety shows till midnight. RVMUN 2022 will be her first time munning and she is very excited and looking forward to it. She hopes that she can get along well with her fellow delegates and look forward to building memorable and meaningful memories together, such that 20 years down the road everyone will look back and be thankful for this MUN experience."
                },
                {
                    "name": "Crystal Lai",
                    "email": "crystal_lai@rvhs.edu.sg",
                    "bio": "Crystal is a JC2 student taking PCMH, who started her MUN journey in GGC 2021. She is a very talkative person who loves to entertain her friends with random life stories. She also likes eating, and especially enjoys the spiciest of food, and rarely eats anything that is not spicy. This will be her first time directing a MUN and she is determined to do her best along with her fellow directors. She hopes that all delegates will be able to pick up something new from the conference and have an unforgettable experience!"
                }
            ],
            "topics": [{
                    "name": "Impact of climate change on food security",
                    "intro": "In the 2030 Sustainable Development Goals, \"zero hunger\" and \"climate action\" occupy 2 of the main goals to achieve a sustainable world. In fact, these problems are interlinked! Climate change has contributed numerous weather hazards (eg. droughts, floods, tornadoes), which actually have adverse impacts on agricultural production and access to food and water around the world. This leads to lack of nutrition and decreasing food imports, where more and more people suffer from food insecurity. Shockingly, 2.37 billion experienced some form of food insecurity in 2015 and these numbers have been rising even till today! So, how exactly can the world build a resilient food system and sustainable production patterns in our battle against the impacts of climate change? "
                },
                {
                    "name": "Question on Support of Non-Self Governing Territories by Specialised Agencies and International Institutions with the United Nations",
                    "intro": "What are non-self governing territories (NSGTs)? They are territories whose people have not yet attained a full measure of self-government, and include regions like American Samoa and Bermuda. Due to their often small size, they face special challenges in planning for and implementing sustainable development. They will be constrained in meeting those challenges without the continuing cooperation and assistance of the specialised agencies and other organisations of the United Nations system. However, supporting a developing nation is not cheap. Is it really worth it to support them?"
                }
            ],
            "intro": "The Economic and Social Council, one of the 6 principal organs of the UN serves to promote collective action for sustainable development in 3 dimensions -- economic, social and environmental. The topics up for debate is as follows: (1) Impact of climate change on food security and (2) Question on Support of Non-Self Governing Territories by Specialised Agencies and International Institutions with the United Nations."
        },
        {
            "council": "UNESCO",
            "long": "United Nations Educational, Scientific and Cultural Organisation",
            "directors": [{
                    "name": "Oliver Tim",
                    "email": "oliver_tim@rvhs.edu.sg",
                    "bio": "Oliver first started his MUN journey in 2019 as a delegate in a futuristic crisis council, and though he was initially super confused with how a MUN works, things eventually worked out such that he found himself landing in a director’s role. As a true \"hybrid\" hybrid student who takes CMHE, Oliver has developed a keen addiction to coffee over the years of cramming humanities and sciences (he enjoys all coffee types, although he exceptionally detests the taste of mocha). He also has taken a liking to the sport of cycling, books, K-Pop girl groups, and history. Though directing for the first time, he warmly welcomes any delegates in UNESCO to approach him for enquiries and wishes for a fruitful debate to be on course for RVMUN 2022."
                },
                {
                    "name": "Chua Jing Wen",
                    "email": "chua_jing_wen@rvhs.edu.sg",
                    "bio": "Jing Wen has embarked on her first MUN journey in 2021. While she is still familiarising herself with everything, she will try her best to make RVMUN (one of) the best MUN experience you will ever have. Jing Wen loves to dance (even though she is not very good), has a slight obsession over BTS (and might just have no more money left) and invests (too much of) her time into watching many different types of drama. While many thinks she looks scary, she is very open and welcome to any delegates in UNESCO that wish to enquire about anything (can be other than UNESCO too) and she really hopes to create a one-of-a-kind experience for delegates during RVMUN 2022."
 },
                {
                    "name": "Harry Lee",
                    "email": "harry_lee@rvhs.edu.sg",
                    "bio": "Harry entered the world of RVMUN in 2020 after being dragged to be a delegate in UNHCR before becoming a director for the first time in 2022. During his free time, he watches stand-up comedy, YouTube videos and anime (he loves Jujutsu Kaisen). He devotes himself to pursue his interests, including speaking German as a third language and reading philosophy (wow, so deep) and current affairs. Despite his serious demeanour, he is quite approachable and hopes that delegates will enter RVMUN 2022 with an open mind and enjoy the conference."
                }
            ],
            "topics": [{
                    "name": "Preservation of tangible heritage sites in war-stricken countries",
                    "intro": "Did you know Palmyra has a history of more than 3,800 years? Palmyra is one of the longest standing historical sites that has stood the test of time, even after going through rounds of military conflict? Iconic historical sites like Palmyra play an important role in continuing a country's heritage and culture. In war-stricken countries, heritage sites act as an important area of collective memory and identity. Yet, during conflict, little regard is given to the condition of these heritage sites, while some are even left dilapidated. However, these countries, being war-stricken, have limited resources. Should they then prioritise preserving tangible heritage sites?"
                },
                {
                    "name": "Effects of Covid-19 on marine conservation and the sustainable development of life below water ",
                    "intro": "Marine conservation is something we are all familiar with, but the Covid-19 pandemic has brought on a new wave of unprecedented problems that has adverse effects on the process of marine conservation. It pollutes the ocean even more, with the increased amount of plastic wastes (i.e. pandemic-associated plastics, such as used PPEs and hospital Covid-19 kits) released into the oceans. Simultaneously the pandemic greatly slowed down the development of ocean science, with research vessels being greatly limited in numbers on the seas. With less knowledge, we will become less prepared to protect the oceans. Join us as we address these issues and find out what we can do to cut back the effects of Covid-19 on marine conservation!"
                }
            ],
            "intro": "The United Nations Educational, Scientific and Cultural Organisation (UNESCO) is one of the six General Assemblies of the United Nations. The mandate of UNESCO is to further peace and security by advancing in international collaboration in the spheres of education, science and culture. With 193 member states and 11 associate members, UNESCO strives for human rights and justice amidst political decisions and the development of countries.\n\nUNESCO’s aims encompass the building of peace, eradication of poverty, promotion of sustainable development and fostering of intercultural relations. Some of the programmes sponsored by UNESCO include the World Heritage Sites, translations of world literature, and promotion of autonomous media and freedom from the press. With the emerging forms of intolerance and threats to freedom of expression, UNESCO’s vision remains relevant to reaffirm the humanist goals in education, science and culture."
        },
        {
            "council": "SOCHUM",
            "long": "Social, Humanitarian, and Cultural Committee",
            "directors": [{
                    "name": "Valencia Tan",
                    "email": "valencia_tan@rvhs.edu.sg",
                    "bio": "Valencia’s first encounter with MUN was in GGC 2021, where she found it a rather pleasant and warm experience; thus returning to the MUNing scene as a director in RVMUN 2022. Outside of MUN, Valencia is an avid procrastinator who has mastered the terrible arts of procrastination. She Genshins, reads and cycles her time away till the clock strikes midnight, marking the start of her rush hour (to complete the tasks she placed on hold). OH, and Valencia has 2 cats!"
                },
                {
                    "name": "Matthew Tang",
                    "email": "matthew_tang@rvhs.edu.sg",
                    "bio": "Matthew’s first experience with RVMUN was when he became a note passer for the 2018 iteration of RVMUN. Getting a chance to watch the chaos unfold in the UNSC inspired him to take up the role of director. When choosing to aimlessly procrastinate, Matthew plays Genshin Impact even though he has zero skill."
                },
                {
                    "name": "Celeste Yeong",
                    "email": "celeste_yeong@rvhs.edu.sg",
                    "bio": "Celeste is a JC2 student taking the subject combination of BCME, who loves nothing more than to drink 3 cups of coffee a day. In fact, she named her bunny, Coffee. She got dragged into RVMUN 2022 under the influence of her best friend, and landed herself in the role of a director. In spite of her weak ankle, she enjoys going on adventurous trails with her friends all over Singapore. Although this is her first time in MUN, she hopes that she can bring forth a fruitful and memorable journey for all delegates of SOCHUM."
                }
            ],
            "topics": [{
                    "name": "Freedom of the Press",
                    "intro": "Journalism is an indispensable part of society. Only with freedom of speech and expression of journalists can voices be heard on a global stage and citizens can have access to quality information around the world. However, in recent years, there has been a rising number of journalists arrest, murder, violence, abuse, and intimidation by governments. Despite freedom of expression being recognised universally as a human right, journalists are experiencing high levels of censorship of their works and increasingly prominent dangers at work. In 2022, SOCHUM will be discussing the degree of censorship on our press and the impunity of journalists. Join us at SOCHUM to be the voice for the unheard!"
                },
                {
                    "name": "The Question of Child Protection",
                    "intro": "Children are precious persons that deserve to grow up joyful and healthy However, in certain areas around the world, not all children have the proper infrastructure and legislature in their respective countries to live peacefully. In 2022, the Third Committee will be discussing the abolishment of the use of the death penalty for minors and the mandatory provision of mental healthcare facilities "
                }
            ],
            "intro": "The Social, Humanitarian and Cultural Committee is the 3rd of the 6 main committees at the General Assembly of the United Nations. SOCHUM examines human rights issues, humanitarian crises and other concerns such as the advancement of women and the protection of children. For RVMUN 2022, we will be focusing on (1) Freedom of the Press and (2) The Question of Child Protection."
        },
        {
            "council": "SPECPOL",
            "long": "Special Political and Decolonization Committee",
            "directors": [{
                    "name": "Gan Xi Yee",
                    "email": "gan_xi_yee@rvhs.edu.sg",
                    "bio": "Xi Yee is a JC1 CSC student who has a deep interest in current affairs and international relations. Being in the MUN circuit allows her to feel more confident to voice out her opinions on global issues. Being an introvert, Xi Yee has limited social battery and cannot sustain a conversation for more than 30 minutes. During her free time, she likes to lie on her bed and Netflix to escape from reality. Due to her awful experience as a first time delegate, she hopes that she can create a safe space for all delegates to voice out their opinions in RVMUN 2022. Despite the jitters from being a first-time chair, Xi Yee hopes that all SPECPOL delegates will have a fruitful and enriching experience at RVMUN 2022."
                },
                {
                    "name": "Hong Liying Rie",
                    "email": "rie_hong@rvhs.edu.sg",
                    "bio": "Rie is a JC1 CSC student who, according to her friends, \"looks very scary with those piercing eyes of hers but in reality she is actually friendly!!\" She spends most of her time either binge watching Youtube or using Instagram reels to watch Tiktok, much to the annoyance of those around her. She also spends an unhealthy amount of time reading books and complaining when they do not live up to her expectations at every chance she gets. (See also: The Great Gatsby) Having taken BSP in Sec 3 and 4, Rie has a keen interest in global issues and hopes to be able to share her passion with like-minded individuals. This will be her first MUN as well as her first time chairing a council, and she hopes that delegates will have fruitful discussions, gain new knowledge and have a fun and enriching time at RVMUN."
                },
                {
                    "name": "Lin Jianping",
                    "email": "lin_jianping@rvhs.edu.sg",
                    "bio": "JianPing is a JC2 student who takes the combination of PCMH who somehow ended up being a director when he applied for an administrative role in RVMUN. This will be his first year doing MUN, but there is always a first time for everything, and it will definitely be a fruitful experience for all the delegates! He hopes that all the delegates will have fun during the MUN and step out of their comfort zones during conferences and don’t just have a good time, but a great time in RVMUN!"
                }
            ],
            "topics": [{
                    "name": "Peaceful International Utilisation of Outer Space",
                    "intro": "The utilisation of space for peaceful and beneficial purposes has undoubtedly paved the way to a better standard of life on Earth. Despite this, existing international space law provides a significant amount of leeway for engagement in activities that could be destructive in nature, such as militarisation and space debris. As such, SPECPOL, which has a responsibility to ensure peaceful uses of outer space, has placed a significant amount of emphasis on ensuring that there is as little conflict between countries regarding the international utilization of space as possible."
                },
                {
                    "name": "Establishing lasting peace in Yemen",
                    "intro": "Yemen is currently the site of grievous civilian suffering amid an intractable civil war. In December 2020, it reported that the Yemen crisis had caused an estimated 233,000 deaths, including 131,000 from indirect causes such as lack of food, health services and infrastructure. Yemen is the largest humanitarian crisis in the world \u2639 , with 24.1 million-- 80% of the population in need of humanitarian assistance. The hope for a ceasefire and recovery in Yemen will free the Yemeni people from the suffering they have endured for the past 7 years. Hence, it is critical for SPECPOL to cooperate with other stakeholders and bodies to alleviate the repercussions of the crisis. The complexity and volatile nature of this issue will require careful deliberation and broad research from delegates."
                }
            ],
            "intro": "The United Nations General Assembly Fourth Committee (also known as the Special Political and Decolonization Committee or SPECPOL) is one of the 6 main committees of the United Nations General Assembly. It deals with a diverse set of political issues, including UN peacekeeping and peaceful uses of outer space. For RVMUN 2022, we will be discussing two major topics; (1) Peaceful International Utilisation of Outer Space, and (2) Establishing lasting peace in Yemen."
        },
        {
            "council": "UNSC",
            "long": "United Nations Security Council",
            "directors": [{
                    "name": "Lok Yixuan Cassandra",
                    "email": "lok_yixuan@rvhs.edu.sg",
                    "bio": "Kassendra is very thankful that she is able to be a part of RVMUN 2022. She firmly believes in her morals and does not waver in times of conflict. In her free time, she can spend hours on end burying her nose in a book, idly using her phone, or spending time with her family and friends. Nothing beats a stormy day with a good book and a cup of matcha. She also loves being involved in MUN as it inspires her to think deeply about global issues, collaborate and communicate with others effectively, as well as to come up with potential solutions to these issues. All of these tap on her thirst for knowledge and help to better equip her for the future, hence sparking her interest."
                },
                {
                    "name": "Loo Jia En",
                    "email": "loo_jia_en@rvhs.edu.sg",
                    "bio": "Jia En is relatively new to MUN. During her first experience being a delegate in SOCHUM back in RVMUN 2019, she refused to speak and was forced onto the General Speaker’s List.  After that experience, she promised herself to avoid MUNs. However for Jia En, joining MUN as a director now is due to her love of knowledge. She believes that she is now better able to appreciate the complexities of the world and not see MUN as just boring academic debates.  Jia En hopes to share this love for knowledge to all of her delegates. She also hopes that the delegates bring this knowledge one step further, to analyse and find their own stance in these issues."
                }
            ],
            "topics": [{
                    "name": "Tackling the Somali Refugee Crisis",
                    "intro": "The Somali refugee crisis is one of the biggest refugee crises in the world. Due to the political instability and presence of extremist groups, there has been a large number of citizens displaced. This intricate, multi-faceted, and contentious issue needs your help to discuss and resolve!"
                },
                {
                    "name": "The Question of the Tigray War",
                    "intro": "Despite the severity of this ongoing conflict, little has been done by the UNSC to address the dire human rights and humanitarian crisis in Ethiopia’s northern Tigray region. The Tigray war may seem like a civil war, but the political repercussions it brings can very much escalate the conflict into a regional dispute. Hence, we hope that you can join us to shed more light on this issue and to create solutions to reinforce security in the region."
                }
            ],
            "intro": "The United Nations Security Council addresses all issues that threaten international peace and security. As one of the most powerful agencies of international diplomacy, the UNSC is the only body of the UN that can pass legally-binding resolutions This year, we will discussing the following topics: (1) Tackling the Somali Refugee Crisis, and (2) The Question of the Tigray War."
        },
        {
            "council": "EC",
            "long": "European Commission",
            "directors": [{
                    "name": "Goh Jun Yu",
                    "email": "goh_jun_yu@rvhs.edu.sg",
                    "bio": "Compared to other delegates,  Jun Yu started his MUN journey a little earlier at Secondary 2 with RVMUN 2019. For Jun Yu, RVMUN holds a special place in his heart as he has experienced many \"firsts\" with RVMUN throughout his MUN journey. For many delegates, this may be your first time participating in an advanced council, or in RVMUN, and he hopes that RVMUN 2022 will be a memorable learning experience for you. While he may look really tired and moody most of the time, he is actually really approachable and is probably just immersing himself too deeply in The 1975 and Keshi. Nonetheless, should you ever need help, he would always go the extra mile to help you out!"
                },
                {
                    "name": "Cheryl Chow",
                    "email": "cheryl_chow_han_lin@rvhs.edu.sg",
                    "bio": "Cheryl has an unhealthy obsession with Hhello Kkitty and loves the colour pink. During the weekends, you can find her binging dramas and mangas. During the weekdays, she will be spoiling them to her friends. Despite this, Cheryl takes RVMUN very seriously. Having recently developed an interest in current affairs, she hopes that she can take this opportunity to think more critically about global issues and share her findings with her delegates. Cheryl first joined RVMUN in 2019 as part of SOCHUM. It has been an extremely new experience for her and she hopes that RVMUN this year will be just as exciting for you!"
                }
            ],
            "topics": [{
                    "name": "Combating Foreign Interference in Europe (Legislative)",
                    "intro": "Foreign interference has manifested itself in many different forms. Historically, it is often done through spies who infiltrate a state’s governmental body. With the rise of the internet in the 21st century however, the issue of fabricated falsehoods, political advertisements and data analytics has raised concerns over how we should protect our political institutions from malicious attacks. However, as a union that upholds human rights and liberties, the council must also be careful in preventing laws from being defined too broadly to prevent an infringement on people’s freedom of expression. The intricacies of this issue requires careful deliberation from delegates as the council seeks to protect the integrity of Europe’s political institutions!"
                },
                {
                    "name": "Resolving the Energy Crisis (Executive)",
                    "intro": "Increasing prices for energy has led to a crisis emerging within the union. Despite being one of the spearheaders for a green economy, Europe’s plan to transition into sustainable and renewable energy has been slow and met with many geographical limitations. While some short term solutions have been drafted and implemented, such solutions prove itself to be unsustainable in the long term as the energy crisis continues to inflict major impacts and disruptions across the continent. Delegates will be required to review the EU's plan in transitioning into green energy. In doing so, delegates must be careful to balance the goal of the union to be more environmentally friendly while ensuring sufficient energy supply for Europe to prevent prices from skyrocketing!"
                }
            ],
            "intro": "The EC is back for RVMUN 2022 as the European Commission, an advanced council this time! As one of the three main bodies of the EU (the other two being the council and parliament), the EC holds significant legislative and executive power, setting the impetus and direction for EU policies and laws. As delegates of the EC, you will be tasked with drafting legislative and executive proposals on the matter at hand, which will guide the other bodies of the EU in tackling the issue! This year, we will be looking into the following topics: (1) Combating Foreign Interference in Europe (Legislative), and (2) Resolving the Energy Crisis (Executive)."
        },
        {
            "council": "HCC",
            "long": "Historical Crisis Council",
            "directors": [{
                    "name": "Emily Du",
                    "email": "duyutong74@gmail.com",
                    "bio": "Emily is not unfamiliar with crisis and chaos - as a J2 student from the arts stream, she often finds herself scrawling essays in a frenzy, all while pushing against the pain of a cramped hand. Despite this, she has learnt that her love for all things humanities is fortunately or unfortunately undying, which has led her to take it one step further by organising a historical crisis (also coincidentally part of the A Level History syllabus). It is also through taking exams that she has a newfound appreciation for fast-paced environments, and urges delegates to simply embrace chaos. With this, she hopes to gain fresh perspectives of the Korean War alongside delegates by quite literally rewriting history, and is looking forward to an intellectually stimulating experience. "
                },
                {
                    "name": "Clarice Wong",
                    "email": "claricewong2004@gmail.com",
                    "bio": "Clarice stands right above the average female Singaporean height. However, this does not stop her from roasting anyone even a cm shorter than her. She is a JC2 student from the science stream, but has been struggling in science ever since primary school. In school, she is described to be intimidating and unapproachable. Multiple teachers have also asked her if she is feeling down. She blames this on something she coined the ‘Resting Sad Face’. Rest assured, Clarice is one of the most high-spirited and friendly people you’ll ever meet! In her free time, she enjoys dancing to songs that come up on her playlist. She hopes to learn alongside her crisis committee members and HCC delegates during this year’s conference."
                },
                {
                    "name": "Chloe Tan",
                    "email": "chloe_tan@rvhs.edu.sg",
                    "bio": "Despite standing only 5 cm below the average female Singaporean height, Chloe has always been roasted for her short stature. Chloe is your typical everyday JC2 student who takes the most basic combination of PCME. She first began her MUN journey in 2019, and has developed a strong admiration for munners ever since. Contrary to popular belief, she is not as athletic as people think she is and has in fact failed to learn how to ride a bicycle  countless times. In school, Chloe leads a hectic school life, juggling multiple CCAs and tons of school work. However, she is proud to say that she has never once been late for school and she has never failed to be the first person to reach the class everyday. During her free time, she can be found engaging in a non-exhaustive list of hobbies, from playing the piano to doing mini art projects. She is also known to be friendly and approachable and she hopes that delegates will have a blast (literally with nuclear weapons) at this year’s crisis conference."
                },
                {
                    "name": "Danson Ng",
                    "email": "danson_ng@rvhs.edu.sg",
                    "bio": "Standing at a whopping height of 187cm, Danson faces a daily questionnaire of ‘Why are you so tall?’ and ‘How’s the air up there?’ Contrary to popular belief, the air up here isn’t any different. Danson started off as a shy delegate in RVMUN 2019 and is back again as a shy backroom member of HCC. Outside of school, he can be found immersed in the world of video games, escaping from the ruthless JC life. He hopes to create a memorable MUN experience and looks forward to making new friends!"
                 },
                {
                    "name": "Joycelyn Zhou",
                    "email": "zhou_ying_joycelyn@rvhs.edu.sg",
                    "bio": "Starting with just a simple interest and curiosity for trying something new, Joycelyn joins the organisation of the historical crisis hoping to learn and appreciate the fast-paced chaos of the historical council alongside the delegates. Similarly, outside of school, she is constantly hooked on and interested in trying out new dishes and recipes, being obsessed with food right down to the core! She is eager to see how this year's dish, the Korean War, will turn out on the dining table at the hands of the artful delegate chefs!"
                 },
                {
                    "name": "Li Shi Hui",
                    "email": "li_shi_hui@rvhs.edu.sg",
                    "bio": "Shi Hui takes a very odd subject combination that is only taken by three people in the entire cohort: Chem, Math, CSC, Econs. As for her hobbies, she loves editing documents and creating powerpoint slides for some reason when it comes to schoolwork. Outside of school, she is just the typical girl who watches drama and douyin all day. In order to spice up her last year in RV, she has decided to join MUN even though she is not quite familiar with it, in fact this is her first time attending one. She has decided to do so to challenge herself to something completely new, learn more, gain new experiences and meet new people! She is excited to see how the Korean War will unfold differently and most importantly, she hopes that the delegates will have fun. :)"
                }
            ],
            "topics": [{
                    "name": "Rise of Artificial Intelligence (AI)",
                    "intro": "The first ever AI program was written in 1955, named the Logic Theorist. Since then, AI technology has been incorporated into various aspects of human life. From the integration of AI into educational systems to intelligent virtual assistants that perform daily chores for humans, AI is becoming the norm and has brought many benefits to humankind. AI technology is an asset in healthcare, service, labour, and education, and thus is greatly beneficial to a country’s economy. The ability to perform independently allows performance of tasks at a higher efficiency. \n\nDespite the benefits AI bring about, there are certain drawbacks and risks associated with the use of AI. AI is highly disruptive to current business models, especially in the manufacturing and finance sector. Also, given AI programs' ability to behave autonomously, there is a risk of it causing physical harm upon malfunction or misdirection. As such, it is imperative to pace the development of AI and evaluate the risks involved to ensure the safety of AI technologies.\n"
                },
                {
                    "name": "The Korean War",
                    "intro": "The world has seen the scourges of the Second World War, the might of nuclear annihilation, and now, the descent of countries, families, people into a divided world. Shrouded with constant fears of a nuclear Armageddon and growing tensions across the globe headed by the two superpowers, peace seems farther than ever. In 1950, the world turned its eyes to Korea, sliced into half, as Cold War tensions brewed the hottest it has ever been on the peninsula. What would this mean for the Korean people and for the world who watches on, all fearful for their lives? The historically prominent war fought between the divided North and South Korea remains unresolved even until today. Stemming from the clash between two conflicting ideologies of communism and capitalism, the conflict escalates as the superpowers namely the US and USSR, along with regional neighbors such as China, get involved, providing military and possibly, nuclear aid. The rest of the world will watch on with bated breaths as the fate of their future is placed in your hands in this emulation…"
                }
            ],
            "intro": "The Historical Crisis Council is back again for RVMUN 2022! Join us on an exhilarating journey in a fast-paced council when we visit this year’s topic: The Korean War. You can get the chance to step into the shoes of historical figures such as Kim Il-Sung, Mao Zedong and Stalin, and make key decisions during the Korean War that would impact all of humanity."
        }
    ]
}