{
    "PressCorps Study Guide.pdf": "rvmun19773771",
    "UNICEF Study Guide.pdf": "rvmun19864233",
    "SOCHUM Study Guide.pdf": "rvmun19762486",
    "UNESCO Study Guide.pdf": "rvmun19863726",
    "UNCSW Study Guide.pdf": "rvmun19862791",
    "ARF Study Guide.pdf": "rvmun19273101",
    "ICJ Study Guide.pdf": "rvmun19425101",
    "UNSC Study Guide.pdf": "rvmun19867210",
    "COSTAR Study Guide.pdf": "rvmun19267827"
}